205,205,205,205,205,205,205,205,205,205,205,205,205,205,205,205,205,205,205,205,205,205,205,205,205,205,205,205,205,205,205,205,205,205,205,205,205,205,205,205,205,205,205,205,205,205,205,205,205,205,205,205,205,205,205,205,205,205,205,205,205,205,205,205,205,205,205,205,205,205,205,205,205,205,205,205,205,205,205,205,205,205,205,205,205,205,205,205,205,205,205,205,205,205,205,205,205,205,205,205,205,205,205,205,205,205,205,205,205,205,205,205,205,205,205,205,205,205,205,205
205,207,207,207,207,207,207,207,207,207,207,207,207,207,207,207,205,208,46,46,46,208,205,205,205,205,208,46,47,47,47,208,205,205,208,47,47,47,208,205,205,208,46,208,205,205,208,46,208,205,205,208,46,208,205,205,208,47,47,46,46,208,205,208,208,208,208,208,208,208,208,208,208,208,208,208,208,208,205,205,205,205,205,205,205,205,205,205,205,205,205,205,205,205,205,205,205,205,205,205,205,205,205,205,205,205,205,205,205,205,205,205,205,205,205,205,205,205,205,205
205,207,207,207,207,207,207,207,207,207,207,207,207,207,207,207,205,208,46,47,47,208,205,205,205,205,208,47,46,46,46,208,205,205,208,47,46,46,208,205,205,208,47,208,205,205,208,46,208,205,205,208,47,208,205,205,208,46,46,46,47,208,205,208,208,208,208,208,208,208,208,208,208,208,208,208,208,208,205,205,205,205,205,205,205,205,205,205,205,205,205,205,205,205,205,205,205,205,205,205,205,205,205,205,205,205,205,205,205,205,205,205,205,205,205,205,205,205,205,205
205,207,207,207,207,207,207,207,207,207,207,207,207,207,207,207,205,208,46,46,46,208,205,205,205,205,208,45,46,45,46,208,205,205,208,46,46,45,208,205,205,208,46,208,205,205,208,46,208,205,205,208,46,208,205,205,208,47,47,46,46,208,205,208,208,208,208,208,208,208,208,208,208,208,208,208,208,208,208,208,205,205,205,205,205,205,205,205,205,205,205,205,205,205,205,205,205,205,205,205,205,205,205,205,205,205,205,205,205,205,205,205,205,205,205,205,205,205,205,205
205,207,207,207,207,207,207,207,207,207,207,207,207,207,207,207,205,208,46,46,46,208,205,205,205,205,208,47,46,46,46,208,205,205,208,47,47,47,208,205,205,208,47,208,205,205,208,47,208,205,205,208,47,208,205,205,208,47,47,45,47,208,205,208,208,208,208,208,208,208,208,208,208,208,208,208,208,208,208,208,205,205,205,205,205,205,205,205,205,205,205,205,205,205,205,205,205,205,205,205,205,205,205,205,205,205,205,205,205,205,205,205,205,205,205,205,205,205,205,205
205,207,207,207,207,207,207,207,207,207,207,207,207,207,207,207,205,208,46,46,46,208,205,205,205,205,208,45,46,45,46,208,205,205,208,47,46,46,208,205,205,205,205,205,205,205,205,205,205,205,205,205,205,205,205,205,205,205,205,205,205,205,205,208,208,208,208,208,208,208,208,208,208,208,208,208,208,208,208,208,205,205,205,205,205,205,205,205,205,205,205,205,205,205,205,205,205,205,205,205,205,205,205,205,205,205,205,205,205,205,205,205,205,205,205,205,205,205,205,205
205,207,207,207,207,207,207,207,207,207,207,207,207,207,207,207,205,208,46,47,47,208,205,205,205,205,-1,-1,-1,-1,-1,-1,205,205,208,46,46,45,208,205,205,205,205,205,205,205,205,205,205,205,205,205,205,205,205,205,205,205,205,205,205,205,205,208,208,208,208,208,208,208,208,208,208,208,208,208,208,208,208,208,205,205,205,205,205,205,205,205,205,205,205,205,205,205,205,205,205,205,205,205,205,205,205,205,205,205,205,205,205,205,205,205,205,205,205,205,205,205,205,205
205,207,207,207,207,207,207,207,207,207,207,207,207,207,207,207,205,208,46,46,46,208,205,205,205,205,208,46,47,47,47,208,205,205,205,205,205,205,205,205,205,205,205,205,205,205,205,205,205,205,205,205,205,205,205,205,205,205,205,205,205,205,-1,208,208,208,208,208,208,208,208,208,208,208,208,208,208,208,208,208,205,205,205,205,205,205,205,205,205,205,205,205,205,205,205,205,205,205,205,205,205,205,205,205,205,205,205,205,205,205,205,205,205,205,205,205,205,205,205,205
205,205,205,205,205,205,205,205,205,205,205,205,205,205,205,46,205,205,205,205,205,205,205,205,205,205,208,47,46,46,46,208,205,205,205,205,208,47,47,208,46,46,208,47,47,208,205,205,205,205,205,205,205,205,205,205,205,205,205,205,205,205,205,208,208,208,208,208,208,208,208,208,208,208,208,208,208,208,208,208,205,205,205,205,205,205,205,205,205,205,205,205,205,205,205,205,205,205,205,205,205,205,205,205,205,205,205,205,205,205,205,205,205,205,205,205,205,205,205,205
205,205,205,205,205,205,208,46,46,46,46,208,46,46,46,47,208,46,46,46,208,205,205,205,205,205,208,45,46,45,46,208,205,205,205,205,208,47,47,208,47,47,208,46,46,208,205,205,205,205,205,205,205,205,205,205,205,205,205,205,205,205,205,208,208,208,208,208,208,208,208,208,208,208,208,208,208,208,208,208,205,205,205,205,205,205,205,205,205,205,205,205,205,205,205,205,205,205,205,205,205,205,205,205,205,205,205,205,205,205,205,205,205,205,205,205,205,205,205,205
205,205,205,205,205,205,208,47,46,46,47,208,46,47,47,46,208,46,47,47,208,205,205,205,205,205,205,205,205,205,205,205,205,205,205,205,208,46,46,208,47,47,208,47,47,208,205,205,205,205,205,205,205,205,205,205,205,205,205,205,205,205,205,208,208,208,208,208,208,208,208,208,208,208,208,208,208,208,208,208,205,205,205,205,205,205,205,205,205,205,205,205,205,205,205,205,205,205,205,205,205,205,205,205,205,205,205,205,205,205,205,205,205,205,205,205,205,205,205,205
205,205,205,205,205,205,208,46,46,46,46,208,46,47,47,47,208,46,46,46,208,205,205,205,205,205,205,205,205,205,205,205,205,205,205,205,208,47,47,208,45,46,208,45,46,208,205,205,205,205,205,205,205,205,205,205,208,47,46,46,46,208,205,208,208,208,208,208,208,208,208,208,208,208,208,208,208,208,208,208,205,205,205,205,205,205,205,205,205,205,205,205,205,205,205,205,205,205,205,205,205,205,205,205,205,205,205,205,205,205,205,205,205,205,205,205,205,205,205,205
205,208,48,49,208,205,205,205,205,205,205,205,205,205,205,205,205,205,47,205,205,205,205,205,205,205,205,205,205,205,205,205,205,205,205,205,205,205,205,205,205,205,205,205,205,205,205,205,205,205,205,205,205,205,205,205,208,47,46,47,47,208,205,208,208,208,208,208,208,208,208,208,208,208,208,208,208,208,208,208,208,205,205,205,205,205,205,205,205,205,205,205,205,205,205,205,205,205,205,205,205,205,205,205,205,205,205,205,205,205,205,205,205,205,205,205,205,205,205,205
205,208,48,49,208,205,205,205,205,205,205,208,46,47,46,46,46,45,47,47,208,205,205,205,205,205,205,205,205,205,205,205,205,205,205,205,208,47,47,46,208,46,46,46,47,208,205,205,205,205,205,205,205,205,205,205,208,46,46,46,47,208,205,208,208,208,208,208,208,208,208,208,208,208,208,208,208,208,208,208,208,205,205,205,205,205,205,205,205,205,205,205,205,205,205,205,205,205,205,205,205,205,205,205,205,205,205,205,205,205,205,205,205,205,205,205,205,205,205,205
205,208,49,48,208,205,205,205,205,205,205,208,47,46,45,45,46,47,45,45,208,205,205,205,205,205,205,205,205,205,205,205,205,205,205,205,208,47,47,47,208,47,47,47,47,208,205,205,205,205,205,205,205,205,205,205,205,205,205,205,205,205,-1,208,208,208,208,208,208,208,208,208,208,208,208,208,208,208,208,208,208,205,205,205,205,205,205,205,205,205,205,205,205,205,205,205,205,205,205,205,205,205,205,205,205,205,205,205,205,205,205,205,205,205,205,205,205,205,205,205
205,205,205,205,205,205,205,205,205,205,205,208,47,46,45,46,46,45,47,47,208,205,205,205,205,205,205,205,205,205,205,205,205,205,205,205,208,45,46,46,208,46,46,45,46,208,205,205,205,205,205,205,205,205,205,205,205,205,205,205,205,205,205,208,208,208,208,208,208,208,208,208,208,208,208,208,208,208,208,208,208,205,205,205,205,205,205,205,205,205,205,205,205,205,205,205,205,205,205,205,205,205,205,205,205,205,205,205,205,205,205,205,205,205,205,205,205,205,205,205
205,205,205,205,205,205,205,205,205,205,205,205,205,205,205,205,205,205,205,205,205,205,205,205,205,205,205,205,205,205,205,205,205,205,205,205,205,205,205,205,205,205,205,205,205,205,205,205,205,205,205,205,205,205,205,205,205,205,205,205,205,205,205,208,208,208,208,208,208,208,208,208,208,208,208,208,208,208,208,208,205,205,205,205,205,205,205,205,205,205,205,205,205,205,205,205,205,205,205,205,205,205,205,205,205,205,205,205,205,205,205,205,205,205,205,205,205,205,205,205
205,205,205,205,205,205,205,205,205,205,205,208,47,47,46,46,46,46,208,46,47,46,45,46,46,47,208,205,205,205,205,205,205,205,205,205,208,47,46,47,47,208,46,46,46,46,47,208,205,205,205,205,205,205,205,205,205,-1,205,205,205,205,205,205,205,205,205,205,205,205,205,205,205,205,205,205,205,205,205,205,205,205,205,205,205,205,205,205,205,205,205,205,205,205,205,205,205,205,205,205,205,205,205,205,205,205,205,205,205,205,205,205,205,205,205,205,205,205,205,205
205,208,49,48,208,205,205,205,205,205,205,208,46,47,46,46,46,45,208,47,47,46,45,46,47,47,208,205,205,205,205,205,205,205,205,205,208,45,46,47,47,208,47,47,46,45,46,208,205,205,205,205,205,205,205,205,208,47,47,46,46,208,205,205,205,205,205,205,205,205,205,205,205,205,205,205,205,205,205,205,205,205,205,205,205,205,205,205,205,205,205,205,205,205,205,205,205,205,205,205,205,205,205,205,205,205,205,205,205,205,205,205,205,205,205,205,205,205,205,205
205,208,48,48,208,205,205,205,205,205,205,208,47,46,45,45,46,47,208,45,46,47,47,45,46,47,208,205,205,205,205,205,205,205,205,205,208,47,46,46,46,208,46,47,47,47,47,208,205,205,205,205,205,205,205,205,208,46,47,46,46,208,205,205,205,205,205,205,205,205,205,205,205,205,205,205,205,205,205,205,205,205,205,205,205,205,205,205,205,205,205,205,205,205,205,205,205,205,205,205,205,205,205,205,205,205,205,205,205,205,205,205,205,205,205,205,205,205,205,205
205,208,49,48,208,205,205,205,205,205,205,208,47,46,45,46,46,45,208,47,46,46,46,46,46,47,208,205,205,205,205,205,205,205,205,205,208,45,45,46,45,208,46,45,46,45,46,208,205,205,205,205,205,205,205,205,208,47,46,45,47,208,205,205,205,205,205,205,205,205,205,205,205,205,205,205,205,205,205,205,205,205,205,205,205,205,205,205,205,205,205,205,205,205,205,205,205,205,205,205,205,205,205,205,205,205,205,205,205,205,205,205,205,205,205,205,205,205,205,205
205,205,205,205,205,205,205,205,205,205,205,205,205,205,205,205,205,205,205,205,205,205,205,205,205,205,205,205,205,205,205,205,205,205,205,205,205,205,205,205,205,205,205,205,205,205,205,205,205,205,205,205,205,205,205,205,205,205,205,205,205,205,205,205,205,205,205,205,205,205,205,205,205,205,205,205,205,205,205,205,205,205,205,205,205,205,205,205,205,205,205,205,205,205,205,205,205,205,205,205,205,205,205,205,205,205,205,205,205,205,205,205,205,205,205,205,205,205,205,205
205,205,205,205,205,205,205,205,205,205,205,208,47,47,46,46,47,47,208,46,47,47,46,47,46,45,208,205,205,205,205,205,205,205,205,205,208,47,46,46,47,46,46,47,208,46,46,46,46,46,46,47,47,208,205,205,205,205,205,205,205,205,205,205,205,205,205,205,205,205,205,205,205,205,205,205,205,205,205,205,205,205,205,205,205,205,205,205,205,205,205,205,205,205,205,205,205,205,205,205,205,205,205,205,205,205,205,205,205,205,205,205,205,205,205,205,205,205,205,205
205,205,205,205,205,205,205,205,205,205,205,208,46,47,46,46,45,46,208,46,47,47,46,47,46,45,208,205,205,205,205,205,205,205,205,205,208,47,47,46,46,46,46,46,208,45,46,46,45,47,46,47,46,208,205,205,205,205,205,205,205,205,205,205,205,205,205,205,205,205,205,205,205,205,205,205,205,205,205,205,205,205,205,205,205,205,205,205,205,205,205,205,205,205,205,205,205,205,205,205,205,205,205,205,205,205,205,205,205,205,205,205,205,205,205,205,205,205,205,205
205,208,48,49,208,205,205,205,205,205,205,208,47,46,45,46,47,47,208,46,46,47,46,45,46,45,208,205,205,205,205,205,205,205,205,205,208,47,47,45,45,46,47,47,208,46,46,46,46,45,46,47,47,208,205,205,205,205,205,205,205,205,205,205,205,205,205,205,205,205,205,205,205,205,205,205,205,205,205,205,205,205,205,205,205,205,205,205,205,205,205,205,205,205,205,205,205,205,205,205,205,205,205,205,205,205,205,205,205,205,205,205,205,205,205,205,205,205,205,205
205,208,49,48,208,205,205,205,205,205,205,208,46,47,46,46,47,47,208,45,46,47,47,46,45,45,208,205,205,205,205,205,205,205,205,205,208,47,47,46,46,47,46,46,208,47,46,46,46,46,46,47,46,208,205,205,205,205,205,205,205,205,205,205,205,205,205,205,205,205,205,205,205,205,205,205,205,205,205,205,205,205,205,205,205,205,205,205,205,205,205,205,205,205,205,205,205,205,205,205,205,205,205,205,205,205,205,205,205,205,205,205,205,205,205,205,205,205,205,205
205,208,48,49,208,205,205,205,205,205,205,208,47,46,45,46,46,45,208,46,47,47,46,47,46,45,208,205,205,205,205,205,205,205,205,205,208,45,46,45,45,47,45,46,208,46,45,47,46,45,45,46,47,208,205,205,205,205,205,205,205,205,205,205,205,205,205,205,205,205,205,205,205,205,205,205,205,205,205,205,205,205,205,205,205,205,205,205,205,205,205,205,205,205,205,205,205,205,205,205,205,205,205,205,205,205,205,205,205,205,205,205,205,205,205,205,205,205,205,205
205,205,205,205,205,205,205,205,205,205,205,205,205,205,205,205,205,205,205,205,205,205,205,205,205,205,205,205,205,205,205,205,205,205,205,205,205,205,205,205,205,205,205,205,205,205,205,205,205,205,205,205,205,205,205,205,205,205,205,205,205,205,205,205,205,205,205,205,205,205,205,205,205,205,205,205,205,205,205,205,205,205,205,205,205,205,205,205,205,205,205,205,205,205,205,205,205,205,205,205,205,205,205,205,205,205,205,205,205,205,205,205,205,205,205,205,205,205,205,205
205,205,205,205,205,205,205,205,205,205,205,208,47,47,46,46,47,46,208,47,47,46,47,47,47,47,208,205,205,205,205,205,205,205,205,205,208,47,46,46,46,46,46,208,47,47,47,47,47,47,47,208,46,47,47,208,205,205,205,205,205,205,205,205,205,205,205,205,205,205,205,205,205,205,205,205,205,205,205,205,205,205,205,205,205,205,205,205,205,205,205,205,205,205,205,205,205,205,205,205,205,205,205,205,205,205,205,205,205,205,205,205,205,205,205,205,205,205,205,205
205,205,205,205,205,205,205,205,205,205,205,208,46,47,46,46,47,47,208,46,47,47,47,46,47,47,208,205,205,205,205,205,205,205,205,205,208,47,47,47,47,46,46,208,47,46,46,46,47,46,46,208,46,47,46,208,205,205,205,205,205,205,205,205,205,205,205,205,205,205,205,205,205,205,205,205,205,205,205,205,205,205,205,205,205,205,205,205,205,205,205,205,205,205,205,205,205,205,205,205,205,205,205,205,205,205,205,205,205,205,205,205,205,205,205,205,205,205,205,205
205,205,205,205,205,205,205,205,205,205,205,208,47,46,45,46,47,46,208,47,47,47,47,46,47,46,208,205,205,205,205,205,205,205,205,205,208,46,46,46,46,46,47,208,47,46,46,46,46,46,47,208,46,47,47,208,205,205,205,205,205,205,205,205,205,205,205,205,205,205,205,205,205,205,205,205,205,205,205,205,205,205,205,205,205,205,205,205,205,205,205,205,205,205,205,205,205,205,205,205,205,205,205,205,205,205,205,205,205,205,205,205,205,205,205,205,205,205,205,205
205,205,205,205,205,205,205,205,205,205,205,208,46,47,46,46,47,46,208,46,46,47,47,46,47,47,208,205,205,205,205,205,205,205,205,205,208,47,47,47,47,46,46,208,46,46,47,47,47,47,47,208,46,47,46,208,205,205,205,205,205,205,205,205,205,205,205,205,205,205,205,205,205,205,205,205,205,205,205,205,205,205,205,205,205,205,205,205,205,205,205,205,205,205,205,205,205,205,205,205,205,205,205,205,205,205,205,205,205,205,205,205,205,205,205,205,205,205,205,205
205,205,205,205,205,205,205,205,205,205,205,208,47,46,45,46,46,46,208,47,46,46,46,46,47,47,208,205,205,205,205,205,205,205,205,205,208,45,46,45,47,45,46,208,46,47,46,45,45,45,46,208,45,46,47,208,205,205,205,205,205,205,205,205,205,205,205,205,205,205,205,205,205,205,205,205,205,205,205,205,205,205,205,205,205,205,205,205,205,205,205,205,205,205,205,205,205,205,205,205,205,205,205,205,205,205,205,205,205,205,205,205,205,205,205,205,205,205,205,205
205,205,205,205,205,205,205,205,205,205,205,205,205,205,205,205,205,205,205,205,205,205,205,205,205,205,205,205,205,205,205,205,205,205,205,205,205,205,205,205,205,205,205,205,205,205,205,205,205,205,205,205,205,205,205,205,205,205,205,205,205,205,205,205,205,205,205,205,205,205,205,205,205,205,205,205,205,205,205,205,205,205,205,205,205,205,205,205,205,205,205,205,205,205,205,205,205,205,205,205,205,205,205,205,205,205,205,205,205,205,205,205,205,205,205,205,205,205,205,205
205,205,205,205,205,205,205,205,205,205,205,205,205,42,42,205,205,205,205,205,205,205,205,205,205,205,205,205,205,42,42,205,205,205,42,42,205,205,205,205,205,42,42,205,205,205,205,205,205,205,205,205,205,205,205,205,205,205,205,205,205,205,205,208,208,208,208,208,208,208,208,208,208,208,208,208,208,208,208,208,208,208,208,208,208,208,208,208,208,208,208,208,205,205,205,205,205,205,205,205,205,205,205,205,205,205,205,205,205,205,205,205,205,205,205,205,205,205,205,205
205,205,205,205,205,205,205,205,205,205,205,205,205,59,59,205,205,205,205,205,205,205,205,205,205,205,205,205,205,59,59,205,205,205,59,59,205,205,205,205,205,59,59,205,205,205,205,205,205,205,205,205,205,205,205,205,205,205,205,205,205,205,205,208,208,208,208,208,208,208,208,208,208,208,208,208,208,208,208,208,208,208,208,208,208,208,208,208,208,208,208,208,205,205,205,205,205,205,205,205,205,205,205,205,205,205,205,205,205,205,205,205,205,205,205,205,205,205,205,205
205,205,205,205,205,205,205,205,205,205,205,205,205,224,224,205,205,205,205,205,205,193,205,205,205,205,205,205,205,224,224,205,205,205,59,59,205,205,205,205,205,59,59,205,205,205,205,205,205,205,205,205,205,192,205,205,205,205,205,205,205,205,205,208,208,208,208,208,208,208,208,208,208,208,208,208,208,208,208,208,208,208,208,208,208,208,208,208,208,208,208,208,205,205,205,205,205,205,205,205,205,205,205,205,205,205,205,205,205,205,205,205,205,205,205,205,205,205,205,205
205,205,205,205,205,205,205,205,205,205,205,205,205,205,205,205,205,205,205,225,224,224,224,224,224,225,205,205,205,205,205,205,205,205,224,224,205,205,205,205,205,224,224,205,205,205,205,205,205,205,205,205,225,224,224,225,205,205,205,205,205,205,205,208,208,208,208,208,208,208,208,208,208,208,208,208,208,208,208,208,208,208,208,208,208,208,208,208,208,208,208,208,205,205,205,205,205,205,205,205,205,205,205,205,205,205,205,205,205,205,205,205,205,205,205,205,205,205,205,205
205,205,205,205,205,205,205,205,205,205,205,205,205,205,205,205,205,205,205,205,205,205,205,205,205,205,205,205,205,205,205,205,205,205,205,205,205,205,205,205,205,205,205,205,205,205,205,205,205,205,205,205,205,205,205,205,205,205,205,205,205,205,205,208,208,208,208,208,208,208,208,208,208,208,208,208,208,208,208,208,208,208,208,208,208,208,208,208,208,208,208,208,205,205,205,205,205,205,205,205,205,205,205,205,205,205,205,205,205,205,205,205,205,205,205,205,205,205,205,205
205,205,205,205,205,205,205,205,205,205,205,205,205,205,205,205,205,205,205,205,205,205,205,205,205,205,205,205,205,205,205,205,205,205,205,205,205,205,205,205,205,205,205,205,205,205,205,205,205,205,42,42,205,205,205,205,205,205,205,205,205,205,205,208,208,208,208,208,208,208,208,208,208,208,208,208,208,208,208,208,208,208,208,208,208,208,208,208,208,208,208,208,205,205,205,205,205,205,205,205,205,205,205,205,205,205,205,205,205,205,205,205,205,205,205,205,205,205,205,205
205,205,205,205,205,205,205,205,205,205,205,205,205,205,205,205,205,205,205,205,205,205,205,205,205,205,205,205,205,205,205,205,205,205,205,205,205,205,205,205,205,205,205,205,205,205,205,205,205,205,59,59,205,205,205,205,205,205,205,205,205,205,205,208,208,208,208,208,208,208,208,208,208,208,208,208,208,208,208,208,208,208,208,208,208,208,208,208,208,208,208,208,205,205,205,205,205,205,205,205,205,205,205,205,205,205,205,205,205,205,205,205,205,205,205,205,205,205,205,205
205,205,205,205,205,205,205,205,205,205,205,205,205,205,205,205,205,205,205,205,205,205,205,205,205,205,205,205,205,205,205,205,205,205,42,42,205,205,205,205,205,205,205,205,205,205,205,205,205,205,59,59,205,205,205,205,205,205,205,205,205,205,205,208,208,208,208,208,208,208,208,208,208,208,208,208,208,208,208,208,208,208,208,208,208,208,208,208,208,208,208,208,205,205,205,205,205,205,205,205,205,205,205,205,205,205,205,205,205,205,205,205,205,205,205,205,205,205,205,205
205,205,205,205,205,205,205,205,205,205,205,205,205,205,42,42,205,205,205,205,205,205,205,205,205,205,205,205,205,205,205,205,205,205,59,59,205,205,205,205,205,205,205,205,205,205,205,205,205,205,224,224,205,205,205,205,205,205,205,205,205,205,205,208,208,208,208,208,208,208,208,208,208,208,208,208,208,208,208,208,208,208,208,208,208,208,208,208,208,208,208,208,205,205,205,205,205,205,205,205,205,205,205,205,205,205,205,205,205,205,205,205,205,205,205,205,205,205,205,205
205,205,205,205,205,205,205,205,205,205,205,205,205,205,59,59,205,205,205,205,193,205,205,205,205,205,205,205,205,205,205,205,205,205,224,224,205,205,205,205,205,205,193,205,205,205,205,205,205,205,205,205,205,205,205,205,205,42,42,205,205,205,205,208,208,208,208,208,208,208,208,208,208,208,208,208,208,208,208,208,208,208,208,208,208,208,208,208,208,208,208,208,205,205,205,205,205,205,205,205,205,205,205,205,205,205,205,205,205,205,205,205,205,205,205,205,205,205,205,205
205,205,205,205,205,205,205,205,205,205,205,205,205,205,224,224,205,205,205,225,224,224,224,224,225,205,205,205,205,205,205,205,205,205,205,205,205,205,205,205,205,225,224,224,224,224,225,205,205,205,205,205,205,205,205,205,205,59,59,205,205,205,205,208,208,208,208,208,208,208,208,208,208,208,208,208,208,208,208,208,208,208,208,208,208,208,208,208,208,208,208,208,205,205,205,205,205,205,205,205,205,205,205,205,205,205,205,205,205,205,205,205,205,205,205,205,205,205,205,205
205,205,205,205,205,205,205,205,205,205,205,205,205,205,205,205,205,205,205,205,205,205,205,205,205,205,205,205,205,205,205,205,205,205,205,205,205,205,205,205,205,205,205,205,205,205,205,205,205,205,205,205,205,205,205,205,205,224,224,205,205,205,205,205,205,205,205,205,205,205,205,205,205,205,205,205,205,205,205,205,205,205,205,205,205,205,205,205,205,205,205,205,205,205,205,205,205,205,205,205,205,205,205,205,205,205,205,205,205,205,205,205,205,205,205,205,205,205,205,205
205,205,205,205,205,205,205,205,205,205,205,205,205,205,205,42,42,205,205,205,205,42,42,205,205,42,42,205,205,205,205,205,205,205,205,205,205,205,42,42,205,205,205,42,42,205,205,205,42,42,205,205,205,205,205,205,205,205,205,205,205,205,205,205,205,205,205,205,205,205,205,205,205,205,205,205,205,205,205,205,205,205,205,205,205,205,205,205,205,205,205,205,205,205,205,205,205,205,205,205,205,205,205,205,205,205,205,205,205,205,205,205,205,205,205,205,205,205,205,205
205,205,205,205,205,205,205,205,205,205,205,205,205,205,205,59,59,205,205,205,205,59,59,205,205,59,59,205,205,205,205,205,205,205,205,205,205,205,59,59,205,205,205,59,59,205,205,205,59,59,205,205,205,205,205,205,205,205,205,205,205,205,205,205,205,205,205,205,205,205,205,205,205,205,205,205,205,205,205,205,205,205,205,205,205,205,205,205,205,205,205,205,205,205,205,205,205,205,205,205,205,205,205,205,205,205,205,205,205,205,205,205,205,205,205,205,205,205,205,205
205,205,205,205,205,205,205,205,205,205,205,205,205,205,205,224,224,205,205,205,205,205,205,205,205,224,224,205,205,205,205,205,42,42,205,205,205,205,224,224,205,205,205,224,224,205,205,205,224,224,205,205,205,205,205,205,205,205,205,205,205,205,205,205,205,205,205,205,205,205,205,205,205,205,205,205,205,205,205,205,205,205,205,205,205,205,205,205,205,205,205,205,205,205,205,205,205,205,205,205,205,205,205,205,205,205,205,205,205,205,205,205,205,205,205,205,205,205,205,205
205,205,205,205,205,205,205,205,205,205,205,205,205,205,205,205,205,205,205,205,205,205,205,205,205,205,205,205,205,205,205,205,59,59,205,205,205,205,205,205,205,205,205,205,205,205,205,205,205,205,205,205,205,205,205,205,205,205,205,205,205,205,205,205,205,205,205,205,205,205,205,205,205,205,205,205,205,205,205,205,205,205,205,205,205,205,205,205,205,205,205,205,205,205,205,205,205,205,205,205,205,205,205,205,205,205,205,205,205,205,205,205,205,205,205,205,205,205,205,205
205,205,205,205,205,205,205,205,205,205,205,205,205,205,205,205,205,205,205,205,205,205,205,205,205,205,205,205,205,205,205,205,224,224,205,205,205,205,205,205,205,205,205,205,205,205,205,205,205,205,205,205,205,205,205,205,205,205,205,205,205,205,205,205,205,205,205,205,205,205,205,205,205,205,205,205,205,205,205,205,205,205,205,205,205,205,205,205,205,205,205,205,205,205,205,205,205,205,205,205,205,205,205,205,205,205,205,205,205,205,205,205,205,205,205,205,205,205,205,205
205,205,205,205,205,205,205,205,205,205,205,205,205,205,205,205,205,205,205,193,205,192,205,205,205,223,205,193,205,205,205,205,193,205,192,205,205,193,205,192,205,205,205,223,205,193,205,205,205,205,205,205,205,205,205,205,205,205,205,205,205,205,205,205,205,205,205,205,205,205,205,205,205,205,205,205,205,205,205,205,205,205,205,205,205,205,205,205,205,205,205,205,205,205,205,205,205,205,205,205,205,205,205,205,205,205,205,205,205,205,205,205,205,205,205,205,205,205,205,205
205,205,205,205,205,205,205,205,205,205,205,205,205,205,205,205,205,205,225,224,224,224,224,224,225,224,224,224,224,225,224,224,224,225,224,224,224,224,225,224,224,224,224,225,224,224,224,224,225,205,205,205,205,205,205,205,205,205,205,205,205,205,205,205,205,205,205,205,205,205,205,205,205,205,205,205,205,205,205,205,205,205,205,205,205,205,205,205,205,205,205,205,205,205,205,205,205,205,205,205,205,205,205,205,205,205,205,205,205,205,205,205,205,205,205,205,205,205,205,205
205,205,205,205,205,205,205,205,205,205,205,205,205,205,205,205,205,205,205,205,205,205,205,205,205,205,205,205,205,205,205,205,205,205,205,205,205,205,205,205,205,205,205,205,205,205,205,205,205,205,205,205,205,205,205,205,205,205,205,205,205,205,205,205,205,205,205,205,205,205,205,205,205,205,205,205,205,205,205,205,205,205,205,205,205,205,205,205,205,205,205,205,205,205,205,205,205,205,205,205,205,205,205,205,205,205,205,205,205,205,205,205,205,205,205,205,205,205,205,205
205,205,205,205,205,205,205,205,205,205,205,205,205,205,205,205,205,205,205,205,205,205,205,205,205,205,205,205,205,205,205,205,205,205,205,205,205,205,205,205,205,205,205,205,205,205,205,205,205,205,205,205,205,205,205,205,205,205,205,205,205,205,205,205,205,205,205,205,205,205,205,205,205,205,205,205,205,205,205,205,205,205,205,205,205,205,205,205,205,205,205,205,205,205,205,205,205,205,205,205,205,205,205,205,205,205,205,205,205,205,205,205,205,205,205,205,205,205,205,205
205,205,205,205,205,205,205,205,205,205,205,205,205,205,205,205,205,205,205,205,205,205,205,205,205,205,205,205,205,205,205,205,205,205,205,205,205,205,205,205,205,205,205,205,205,205,205,205,205,205,205,205,205,205,205,205,205,205,205,205,205,205,205,205,205,205,205,205,205,205,205,205,205,205,205,205,205,205,205,205,205,205,205,205,205,205,205,205,205,205,205,205,205,205,205,205,205,205,205,205,205,205,205,205,205,205,205,205,205,205,205,205,205,205,205,205,205,205,205,205
205,205,205,205,205,205,205,205,205,205,205,205,205,205,205,205,205,205,205,205,205,205,205,205,205,205,205,205,205,205,205,205,205,205,205,205,205,205,205,205,205,205,205,205,205,205,205,205,205,205,205,205,205,205,205,205,205,205,205,205,205,205,205,205,205,205,205,205,205,205,205,205,205,205,205,205,205,205,205,205,205,205,205,205,205,205,205,205,205,205,205,205,205,205,205,205,205,205,205,205,205,205,205,205,205,205,205,205,205,205,205,205,205,205,205,205,205,205,205,205
205,205,205,205,205,205,205,205,205,205,205,205,205,205,205,205,205,205,205,205,205,205,205,205,205,205,205,205,205,205,205,205,205,205,205,205,205,205,205,205,205,205,205,205,205,205,205,205,205,205,205,205,205,205,205,205,205,205,205,205,205,205,205,205,205,205,205,205,205,205,205,205,205,205,205,205,205,205,205,205,205,205,205,205,205,205,205,205,205,205,205,205,205,205,205,205,205,205,205,205,205,205,205,205,205,205,205,205,205,205,205,205,205,205,205,205,205,205,205,205
205,205,205,205,205,205,205,205,205,205,205,205,205,205,205,205,205,205,205,205,205,205,205,205,205,205,205,205,205,205,205,205,205,205,205,205,205,205,205,205,205,205,205,205,205,205,205,205,205,205,205,205,205,205,205,205,205,205,205,205,205,205,205,205,205,205,205,205,205,205,205,205,205,205,205,205,205,205,205,205,205,205,205,205,205,205,205,205,205,205,205,205,205,205,205,205,205,205,205,205,205,205,205,205,205,205,205,205,205,205,205,205,205,205,205,205,205,205,205,205
205,205,205,205,205,205,205,205,205,205,205,205,205,205,205,205,205,205,205,205,205,205,205,205,205,205,205,205,205,205,205,205,205,205,205,205,205,205,205,205,205,205,205,205,205,205,205,205,205,205,205,205,205,205,205,205,205,205,205,205,205,205,205,205,205,205,205,205,205,205,205,205,205,205,205,205,205,205,205,205,205,205,205,205,205,205,205,205,205,205,205,205,205,205,205,205,205,205,205,205,205,205,205,205,205,205,205,205,205,205,205,205,205,205,205,205,205,205,205,205
205,205,205,205,205,205,205,205,205,205,205,205,205,205,205,205,205,205,205,205,205,205,205,205,205,205,205,205,205,205,205,205,205,205,205,205,205,205,205,205,205,205,205,205,205,205,205,205,205,205,205,205,205,205,205,205,205,205,205,205,205,205,205,205,205,205,205,205,205,205,205,205,205,205,205,205,205,205,205,205,205,205,205,205,205,205,205,205,205,205,205,205,205,205,205,205,205,205,205,205,205,205,205,205,205,205,205,205,205,205,205,205,205,205,205,205,205,205,205,205
205,205,205,205,205,205,205,205,205,205,205,205,205,205,205,205,205,205,205,205,205,205,205,205,205,205,205,205,205,205,205,205,205,205,205,205,205,205,205,205,205,205,205,205,205,205,205,205,205,205,205,205,205,205,205,205,205,205,205,205,205,205,205,205,205,205,205,205,205,205,205,205,205,205,205,205,205,205,205,205,205,205,205,205,205,205,205,205,205,205,205,205,205,205,205,205,205,205,205,205,205,205,205,205,205,205,205,205,205,205,205,205,205,205,205,205,205,205,205,205
205,205,205,205,205,205,205,205,205,205,205,205,205,205,205,205,205,205,205,205,205,205,205,205,205,205,205,205,205,205,205,205,205,205,205,205,205,205,205,205,205,205,205,205,205,205,205,205,205,205,205,205,205,205,205,205,205,205,205,205,205,205,205,205,205,205,205,205,205,205,205,205,205,205,205,205,205,205,205,205,205,205,205,205,205,205,205,205,205,205,205,205,205,205,205,205,205,205,205,205,205,205,205,205,205,205,205,205,205,205,205,205,205,205,205,205,205,205,205,205
205,205,205,205,205,205,205,205,205,205,205,205,205,205,205,205,205,205,205,205,205,205,205,205,205,205,205,205,205,205,205,205,205,205,205,205,205,205,205,205,205,205,205,205,205,205,205,205,205,205,205,205,205,205,205,205,205,205,205,205,205,205,205,205,205,205,205,205,205,205,205,205,205,205,205,205,205,205,205,205,205,205,205,205,205,205,205,205,205,205,205,205,205,205,205,205,205,205,205,205,205,205,205,205,205,205,205,205,205,205,205,205,205,205,205,205,205,205,205,205
205,205,205,205,205,205,205,205,205,205,205,205,205,205,205,205,205,205,205,205,205,205,205,205,205,205,205,205,205,205,205,205,205,205,205,205,205,205,205,205,205,205,205,205,205,205,205,205,205,205,205,205,205,205,205,205,205,205,205,205,205,205,205,205,205,205,205,205,205,205,205,205,205,205,205,205,205,205,205,205,205,205,205,205,205,205,205,205,205,205,205,205,205,205,205,205,205,205,205,205,205,205,205,205,205,205,205,205,205,205,205,205,205,205,205,205,205,205,205,205
205,205,205,205,205,205,205,205,205,205,205,205,205,205,205,205,205,205,205,205,205,205,205,205,205,205,205,205,205,205,205,205,205,205,205,205,205,205,205,205,205,205,205,205,205,205,205,205,205,205,205,205,205,205,205,205,205,205,205,205,205,205,205,205,205,205,205,205,205,205,205,205,205,205,205,205,205,205,205,205,205,205,205,205,205,205,205,205,205,205,205,205,205,205,205,205,205,205,205,205,205,205,205,205,205,205,205,205,205,205,205,205,205,205,205,205,205,205,205,205
205,205,205,205,205,205,205,205,205,205,205,205,205,205,205,205,205,205,205,205,205,205,205,205,205,205,205,205,205,205,205,205,205,205,205,205,205,205,205,205,205,205,205,205,205,205,205,205,205,205,205,205,205,205,205,205,205,205,205,205,205,205,205,205,205,205,205,205,205,205,205,205,205,205,205,205,205,205,205,205,205,205,205,205,205,205,205,205,205,205,205,205,205,205,205,205,205,205,205,205,205,205,205,205,205,205,205,205,205,205,205,205,205,205,205,205,205,205,205,205
205,205,205,205,205,205,205,205,205,205,205,205,205,205,205,205,205,205,205,205,205,205,205,205,205,205,205,205,205,205,205,205,205,205,205,205,205,205,205,205,205,205,205,205,205,205,205,205,205,205,205,205,205,205,205,205,205,205,205,205,205,205,205,205,205,205,205,205,205,205,205,205,205,205,205,205,205,205,205,205,205,205,205,205,205,205,205,205,205,205,205,205,205,205,205,205,205,205,205,205,205,205,205,205,205,205,205,205,205,205,205,205,205,205,205,205,205,205,205,205
